1 The Whole Game – From Polls to Playoffs: The Science of Prediction
…
What the time variable is (e.g., date)

How frequently the data occur (e.g., weekly)

In what order the data should be processed

Without this structure, R simply sees a list of numbers. With it, R sees a chronological history that can be modeled. In this course, we will mostly provide you with clean data, but understanding the importance of the tsibble structure is vital.

trump_approval <- read_rds(here::here("data", "trump_approval.rds")) |> 
  mutate(date = yearweek(date)) |> 
  as_tsibble()

trump_approval

# A tsibble: 38 x 2 [1W]
       date approve
     <week>   <dbl>
 1 2025 W05      49
 2 2025 W06      46
 3 2025 W07      46
 4 2025 W08      50
 5 2025 W09      48
 6 2025 W10      48
 7 2025 W11      47
 8 2025 W12      45
 9 2025 W13      48
10 2025 W14      46
# ℹ 28 more rows
…
If, and only if, you are happy with your model’s performance on the holdout data, you can use it to predict future, unknown values. This final step is called forecasting.

When you forecast, you are typically interested in two things:

The Point Estimate (.mean): This is the model’s single best guess—the center of the prediction. For instance, the model’s best guess for the President’s approval rating in the future.

The Prediction Interval: This is the crucial measure of uncertainty. It provides a range of plausible values within which the actual outcome is likely to fall (e.g., 95 percent of the time). A good forecaster never provides a single number; they always provide this interval, acknowledging that the future is inherently uncertain.

For example, we will now forecast the President’s approval ratings for the next 100 weeks using our simple linear trend model:

trump_approval_forecast <- forecast(fit, h = "100 weeks")
trump_approval_forecast

# A fable: 100 x 4 [1W]
# Key:     .model [1]
   .model           date
   <chr>          <week>
 1 linear_trend 2025 W43
 2 linear_trend 2025 W44
 3 linear_trend 2025 W45
 4 linear_trend 2025 W46
 5 linear_trend 2025 W47
 6 linear_trend 2025 W48
 7 linear_trend 2025 W49
 8 linear_trend 2025 W50
 9 linear_trend 2025 W51
10 linear_trend 2025 W52
# ℹ 90 more rows
# ℹ 2 more variables: approve <dist>, .mean <dbl>
…
