3 The Toolkit: R for Time Series – From Polls to Playoffs: The Science of Prediction
…
Monthly
yearmonth()
yearmonth(2025 Oct)

Weekly
yearweek()
yearweek(2025 W42)

Let’s use the provided political science data to demonstrate. We convert the date column into a weekly index using yearweek() and then convert the entire tibble into a tsibble.

# Load a standard tibble of Mr. Trump's approval ratings
trump_approval <- read_rds(here::here("data", "trump_approval.rds"))
trump_approval

# A tibble: 38 × 2
   date       approve
   <date>       <dbl>
 1 2025-10-13      40
 2 2025-10-06      39
 3 2025-09-29      40
 4 2025-09-22      39
 5 2025-09-08      41
 6 2025-09-02      41
 7 2025-09-15      39
 8 2025-08-04      41
 9 2025-08-25      41
10 2025-08-18      40
# ℹ 28 more rows

# Convert it to a tsibble, setting the index explicitly
trump_approval_ts <- trump_approval |> 
  mutate(date = yearweek(date)) |> 
  as_tsibble()

trump_approval_ts

# A tsibble: 38 x 2 [1W]
       date approve
     <week>   <dbl>
 1 2025 W05      49
 2 2025 W06      46
 3 2025 W07      46
 4 2025 W08      50
 5 2025 W09      48
 6 2025 W10      48
 7 2025 W11      47
 8 2025 W12      45
 9 2025 W13      48
10 2025 W14      46
# ℹ 28 more rows
…
In many forecasting projects, you deal with multiple, independent time series simultaneously (e.g., all 30 NBA teams, or all 50 US states). The Key is the column that identifies which individual series each observation belongs to.

The Australian Football League (AFL) data provides a great example. We want to track 18 different teams over the season’s 25 rounds.

# Load data on each AFL team's performance
afl_ladder <- read_rds(here::here("data", "afl_ladder.rds"))

# Convert to a tsibble, defining 'team' as the key and 'round_number' as the index
afl_ladder_ts <- afl_ladder |> 
  as_tsibble(key = team, index = round_number)

afl_ladder_ts

# A tsibble: 450 x 8 [1]
# Key:       team [18]
   season team     round_number season_points score_for score_against percentage
    <dbl> <chr>           <int>         <dbl>     <dbl>         <dbl>      <dbl>
 1   2024 Adelaide            1             0         0             0      0    
 2   2024 Adelaide            2             0        54            60      0.9  
 3   2024 Adelaide            3             0       131           156      0.840
 4   2024 Adelaide            4             0       165           225      0.733
 5   2024 Adelaide            5             0       228           303      0.752
 6   2024 Adelaide            6             4       328           401      0.818
 7   2024 Adelaide            7             4       403           479      0.841
 8   2024 Adelaide            8             8       541           560      0.966
 9   2024 Adelaide            9            12       619           608      1.02 
10   2024 Adelaide           10            14       709           698      1.02 
# ℹ 440 more rows
# ℹ 1 more variable: ladder_position <int>
…
